
1   & 29.877 & 3\% & $1.807 \pm 1.284149$   \\ 
2   & 32.054 & 5\% & $10.3417 \pm 16.01132$   \\ 
3   & 44.059 & 0.5\% & $77.6889 \pm 141.8844$   \\ 
4   & 44.971 & 3\% & $238.4956 \pm 469.6302$   \\ 
5   & 50.808 & 0.5\% & $286.4592 \pm 635.2433$   \\ 
6   & 55.797 & 0.5\% & $641.8255 \pm 1557.93$   \\ 
7   & 53.808 & 1\% & $1278.048 \pm 3414.459$   \\ 
8   & 56.788 & 1\% & $1486.855 \pm 4466.377$   \\ 
